,White alone,Black or African American alone,American Indian and Alaska Native alone,Asian alone,Native Hawaiian and Other Pacific Islander alone,Some Other Race alone,Two or More Races:
2012,598,9,0,0,0,0,13
2013,556,9,0,0,0,0,12
2014,493,9,2,0,0,0,12
2015,442,15,2,0,0,0,17
2016,483,6,2,0,0,0,24
2017,459,6,2,0,0,0,6
2018,425,6,2,3,0,7,12
2019,430,6,0,3,0,0,12
2020,425,13,0,5,0,0,12
2021,340,29,0,5,0,0,8
2022,294,30,0,6,0,0,13
