Performance Measure,2022 Baseline (Data Year 2021),2024 Target (Data Year 2023),2026 Target (Data Year 2025)
Percent of Interstate Pavement in Good condition,65.80%,65.00%,65.00%
Percent of Interstate Pavements in Poor condition,0.40%,1.00%,0.50%
Percent of non-Interstate NHS pavements in Good condition,29.50%,29.00%,30.00%
Percent of non-interstate NHS pavements in Poor condition,8.00%,8.90%,8.50%
Percent of NHS bridges classified as in Good condition,22.80%,18.50%,15.80%
Percent of NHS bridge classified as in Poor condition,12.40%,12.40%,12.00%
