﻿,MB-DO,DR-DO,DR-PT
Major Events,9.12,0.95,0.38
Major Event Rate,3.18,0.28,0.09
Collision Rate,2.86,0.28,0.09
Pedestrian Collision Rate,0.13,0,0
Vehicular Collision Rate,2.66,0.15,0.09
Fatalities,0,0,0
Fatality Rate,0,0,0
Injuries,17.48,2.28,0.38
Injury Rate,6.08,0.7,0.09
System Reliability,26999,23619,38577
,,,
,All Modes,,
Transit Worker Fatality Rate,0,,
Transit Worker Injury Rate,0.24,,
Assaults on Transit Workers,26.6,,
Rate of Assaults on Transit Workers,8.19,,
