Residence,Project #,2025-2029 Projects
Urbana,10; 23,Prospect Avenue: I-74 to IL-10; Curtis Road: Prospect Ave to First St
Champaign ,1,Lincoln Avenue: Wascher Dr to Killarney St
Savoy,6; 9,Duncan Road: Springfield Ave to Kirby Ave; Mattis Avenue: Curtis Rd to Windsor Rd
Mahomet,8,Kirby Avenue: Duncan to Staley
Other,7,Neil Street: Edgebrook Dr to Washington St