Date,Time, Event Location
"Thursday, April 25",4 - 8PM,Illinois Marathon Expo
"Friday, April 26",10AM - 7PM,Illinois Marathon Expo
"Wednesday, May 1",3 - 6PM,University of Illinois Activities & Recreation Center (ARC)
"Saturday, May 4",7AM - 12PM,Urbana's Market at the Square
"Saturday, May 11",1 - 3PM,U of I Extension Day at Martens Center
"Saturday, May 18",10AM - 12:30PM,Savoy Junior Cycle Tour at Colbert Park
"Saturday, May 18",12 - 4PM,Champaign Neighborhood Networks Resource Fair (parking lot at Walnut and Washington in Champaign)
"Saturday, June 8",10AM - 5PM, Mahomet Soda Fest
"Wednesday, June 12",6:30 - 8PM,Urbana Park District Neighborhood Nights at Crestview Park
"Saturday, June 15",12 - 3PM,Juneteenth Celebration at Douglass Park in Champaign
"Saturday, June 22",12 - 4PM,Jettie Rhodes Neighborhood Day at King Park in Urbana
"Saturday, July 13",7AM - 12PM,Urbana's Market at the Square