Mode,Public transportation,Walked,Bicycle,"Taxicab, motorcycle, or other means",Worked from home,Drove alone,Carpooled
United States,4.20%,2.50%,0.50%,1.40%,9.70%,73.20%,8.60%
Champaign,5.30%,10.10%,1.60%,1.10%,9.00%,63.30%,9.50%
Urbana,9.20%,15.80%,4.80%,0.70%,10.40%,51.70%,7.40%
Savoy,4.50%,2.80%,0.20%,0.00%,12.80%,74.50%,5.30%
Tolono,0.10%,0.00%,0.00%,0.00%,2.80%,92.50%,4.60%
Bondville ,0.00%,2.90%,0.00%,0.50%,3.40%,89.40%,3.90%
Mahomet ,0.00%,0.00%,0.40%,0.50%,12.40%,82.90%,3.80%