Year,Passenger,Motorcycle,B Truck*,Fiscal Truck**,Other***,Total
2000,"96,038","3,268","21,901","1,771","20,225","143,203"
2005,"94,715","4,022","21,740","2,242","19,321","142,040"
2010,"99,128","5,461","21,640","2,596","30,834","159,659"
2015,"102,118","5,018","20,796","8,343","29,650","165,925"
2018,"104,066","4,470","21,455","8,780","27,640","166,411"
Change from 2000 to 2018,8%,37%,-2%,396%,37%,16%
