Year,Fatal Crash,A Injury Crash,B Injury Crash,C Injury Crash,No Injuries,Total Pedalcyclist Crashes
2018,0.0,3.0,27.0,9.0,2.0,41.0
2019,0.0,13.0,22.0,8.0,1.0,44.0
2020,2.0,11.0,19.0,8.0,0.0,40.0
2021,0.0,7.0,18.0,7.0,5.0,37.0
2022,0.0,2.0,24.0,6.0,4.0,36.0
Total,2.0,36.0,110.0,38.0,12.0,198.0
Percent of Crashes (%),1.0,18.0,56.0,19.0,6.0,100.0