Year,Fatal Crash,A Injury Crash,B Injury Crash,C Injury Crash,No Injuries,Total Pedestrian Crashes
2018,0.0,13.0,18.0,10.0,0.0,41.0
2019,1.0,16.0,19.0,14.0,1.0,51.0
2020,2.0,8.0,17.0,8.0,0.0,35.0
2021,3.0,7.0,22.0,12.0,1.0,45.0
2022,3.0,15.0,18.0,9.0,2.0,47.0
Total,9.0,59.0,94.0,53.0,4.0,219.0
Percent of Crashes (%),4.0,27.0,43.0,24.0,2.0,100.0